<?xml version="1.0" encoding="UTF-8" standalone="no"?>
<!-- Created with Inkscape (http://www.inkscape.org/) -->

<svg
   xmlns:dc="http://purl.org/dc/elements/1.1/"
   xmlns:cc="http://creativecommons.org/ns#"
   xmlns:rdf="http://www.w3.org/1999/02/22-rdf-syntax-ns#"
   xmlns:svg="http://www.w3.org/2000/svg"
   xmlns="http://www.w3.org/2000/svg"
   xmlns:xlink="http://www.w3.org/1999/xlink"
   xmlns:sodipodi="http://sodipodi.sourceforge.net/DTD/sodipodi-0.dtd"
   xmlns:inkscape="http://www.inkscape.org/namespaces/inkscape"
   enable-background="new"
   width="48"
   height="48"
   id="svg2"
   version="1.1"
   inkscape:version="0.91 r13725"
   sodipodi:docname="lola.svg"
   inkscape:export-filename="D:\Android\workspace\PiRemote\android\app\src\main\res\mipmap-xxxhdpi\ic_launcher.png"
   inkscape:export-xdpi="90"
   inkscape:export-ydpi="90">
  <sodipodi:namedview
     inkscape:object-paths="false"
     id="base"
     pagecolor="#ffffff"
     bordercolor="#666666"
     borderopacity="1.0"
     inkscape:pageopacity="0.0"
     inkscape:pageshadow="2"
     inkscape:zoom="3.7500001"
     inkscape:cx="26.731887"
     inkscape:cy="21.944533"
     inkscape:document-units="px"
     inkscape:current-layer="layer12"
     showgrid="false"
     showguides="false"
     inkscape:guide-bbox="true"
     inkscape:window-width="1680"
     inkscape:window-height="988"
     inkscape:window-x="-8"
     inkscape:window-y="-8"
     inkscape:window-maximized="1"
     inkscape:snap-global="true"
     inkscape:snap-bbox="true"
     inkscape:object-nodes="false"
     inkscape:snap-intersection-paths="false"
     inkscape:snap-bbox-midpoints="false"
     inkscape:snap-bbox-edge-midpoints="false"
     inkscape:bbox-nodes="true"
     inkscape:bbox-paths="false"
     inkscape:snap-smooth-nodes="false">
    <inkscape:grid
       spacingy="1"
       spacingx="1"
       dotted="false"
       snapvisiblegridlinesonly="true"
       enabled="true"
       visible="true"
       empspacing="4"
       id="grid2985"
       type="xygrid" />
    <sodipodi:guide
       id="guide3002"
       position="8,58.524064"
       orientation="1,0" />
    <sodipodi:guide
       id="guide3004"
       position="20,69.304813"
       orientation="1,0" />
    <sodipodi:guide
       id="guide3006"
       position="32,62.631016"
       orientation="1,0" />
    <sodipodi:guide
       id="guide3008"
       position="68,53.390374"
       orientation="1,0" />
    <sodipodi:guide
       id="guide3010"
       position="119.61497,8"
       orientation="0,1" />
    <sodipodi:guide
       id="guide3012"
       position="155.5508,20"
       orientation="0,1" />
    <sodipodi:guide
       id="guide3014"
       position="132.96257,32"
       orientation="0,1" />
    <sodipodi:guide
       id="guide3016"
       position="130.90909,68"
       orientation="0,1" />
    <sodipodi:guide
       id="guide3018"
       position="137.06952,184"
       orientation="0,1" />
    <sodipodi:guide
       id="guide3020"
       position="184,145.79679"
       orientation="1,0" />
    <sodipodi:guide
       id="guide3022"
       position="91.379679,172"
       orientation="0,1" />
    <sodipodi:guide
       id="guide3024"
       position="172,101.64706"
       orientation="1,0" />
    <sodipodi:guide
       id="guide3026"
       position="149.39037,160"
       orientation="0,1" />
    <sodipodi:guide
       id="guide3028"
       position="160,88.299465"
       orientation="1,0" />
    <sodipodi:guide
       id="guide3030"
       position="128.34225,124"
       orientation="0,1" />
    <sodipodi:guide
       id="guide3032"
       position="124,92.919786"
       orientation="1,0" />
  </sodipodi:namedview>
  <defs
     id="defs4">
    <linearGradient
       inkscape:collect="always"
       id="linearGradient11630">
      <stop
         style="stop-color:#000000;stop-opacity:1;"
         offset="0"
         id="stop11632" />
      <stop
         style="stop-color:#000000;stop-opacity:0;"
         offset="1"
         id="stop11634" />
    </linearGradient>
    <filter
       id="filter5275"
       inkscape:label="Drop Shadow"
       style="color-interpolation-filters:sRGB">
      <feFlood
         id="feFlood5277"
         result="flood"
         flood-color="rgb(0,0,0)"
         flood-opacity="0.376471" />
      <feComposite
         id="feComposite5279"
         result="composite1"
         operator="in"
         in2="SourceGraphic"
         in="flood" />
      <feGaussianBlur
         id="feGaussianBlur5281"
         result="blur"
         stdDeviation="4"
         in="composite1" />
      <feOffset
         id="feOffset5283"
         result="offset"
         dy="2"
         dx="0" />
      <feComposite
         id="feComposite5285"
         result="composite2"
         operator="over"
         in2="offset"
         in="SourceGraphic" />
    </filter>
    <filter
       id="filter5287"
       inkscape:label="Drop Shadow"
       style="color-interpolation-filters:sRGB">
      <feFlood
         id="feFlood5289"
         result="flood"
         flood-color="rgb(0,0,0)"
         flood-opacity="0.376471" />
      <feComposite
         id="feComposite5291"
         result="composite1"
         operator="in"
         in2="SourceGraphic"
         in="flood" />
      <feGaussianBlur
         id="feGaussianBlur5293"
         result="blur"
         stdDeviation="4"
         in="composite1" />
      <feOffset
         id="feOffset5295"
         result="offset"
         dy="2"
         dx="0" />
      <feComposite
         id="feComposite5297"
         result="composite2"
         operator="over"
         in2="offset"
         in="SourceGraphic" />
    </filter>
    <filter
       id="filter5299"
       inkscape:label="Drop Shadow"
       style="color-interpolation-filters:sRGB">
      <feFlood
         id="feFlood5301"
         result="flood"
         flood-color="rgb(0,0,0)"
         flood-opacity="0.376471" />
      <feComposite
         id="feComposite5303"
         result="composite1"
         operator="in"
         in2="SourceGraphic"
         in="flood" />
      <feGaussianBlur
         id="feGaussianBlur5305"
         result="blur"
         stdDeviation="4"
         in="composite1" />
      <feOffset
         id="feOffset5307"
         result="offset"
         dy="2"
         dx="0" />
      <feComposite
         id="feComposite5309"
         result="composite2"
         operator="over"
         in2="offset"
         in="SourceGraphic" />
    </filter>
    <filter
       id="filter5311"
       inkscape:label="Drop Shadow"
       style="color-interpolation-filters:sRGB">
      <feFlood
         id="feFlood5313"
         result="flood"
         flood-color="rgb(0,0,0)"
         flood-opacity="0.376471" />
      <feComposite
         id="feComposite5315"
         result="composite1"
         operator="in"
         in2="SourceGraphic"
         in="flood" />
      <feGaussianBlur
         id="feGaussianBlur5317"
         result="blur"
         stdDeviation="4"
         in="composite1" />
      <feOffset
         id="feOffset5319"
         result="offset"
         dy="2"
         dx="0" />
      <feComposite
         id="feComposite5321"
         result="composite2"
         operator="over"
         in2="offset"
         in="SourceGraphic" />
    </filter>
    <filter
       style="color-interpolation-filters:sRGB"
       inkscape:label="Drop Shadow"
       id="filter6493">
      <feFlood
         flood-opacity="0.376471"
         flood-color="rgb(0,0,0)"
         result="flood"
         id="feFlood6495" />
      <feComposite
         in="flood"
         in2="SourceGraphic"
         operator="in"
         result="composite1"
         id="feComposite6497" />
      <feGaussianBlur
         in="composite1"
         stdDeviation="4"
         result="blur"
         id="feGaussianBlur6499" />
      <feOffset
         dx="0"
         dy="2"
         result="offset"
         id="feOffset6501" />
      <feComposite
         in="SourceGraphic"
         in2="offset"
         operator="over"
         result="composite2"
         id="feComposite6503" />
    </filter>
    <filter
       style="color-interpolation-filters:sRGB"
       inkscape:label="Drop Shadow"
       id="filter6505">
      <feFlood
         flood-opacity="0.376471"
         flood-color="rgb(0,0,0)"
         result="flood"
         id="feFlood6507" />
      <feComposite
         in="flood"
         in2="SourceGraphic"
         operator="in"
         result="composite1"
         id="feComposite6509" />
      <feGaussianBlur
         in="composite1"
         stdDeviation="4"
         result="blur"
         id="feGaussianBlur6511" />
      <feOffset
         dx="0"
         dy="2"
         result="offset"
         id="feOffset6513" />
      <feComposite
         in="SourceGraphic"
         in2="offset"
         operator="over"
         result="composite2"
         id="feComposite6515" />
    </filter>
    <filter
       style="color-interpolation-filters:sRGB;"
       inkscape:label="Drop Shadow"
       id="filter4280">
      <feFlood
         flood-opacity="0.376471"
         flood-color="rgb(0,0,0)"
         result="flood"
         id="feFlood4282" />
      <feComposite
         in="flood"
         in2="SourceGraphic"
         operator="in"
         result="composite1"
         id="feComposite4284" />
      <feGaussianBlur
         in="composite1"
         stdDeviation="0.5"
         result="blur"
         id="feGaussianBlur4286" />
      <feOffset
         dx="0"
         dy="0.5"
         result="offset"
         id="feOffset4288" />
      <feComposite
         in="SourceGraphic"
         in2="offset"
         operator="over"
         result="composite2"
         id="feComposite4290" />
    </filter>
    <filter
       style="color-interpolation-filters:sRGB;"
       inkscape:label="Drop Shadow"
       id="filter4542">
      <feFlood
         flood-opacity="0.376471"
         flood-color="rgb(0,0,0)"
         result="flood"
         id="feFlood4544" />
      <feComposite
         in="flood"
         in2="SourceGraphic"
         operator="in"
         result="composite1"
         id="feComposite4546" />
      <feGaussianBlur
         in="composite1"
         stdDeviation="0.5"
         result="blur"
         id="feGaussianBlur4548" />
      <feOffset
         dx="0"
         dy="0.5"
         result="offset"
         id="feOffset4550" />
      <feComposite
         in="SourceGraphic"
         in2="offset"
         operator="over"
         result="composite2"
         id="feComposite4552" />
    </filter>
    <filter
       style="color-interpolation-filters:sRGB;"
       inkscape:label="Drop Shadow"
       id="filter4554">
      <feFlood
         flood-opacity="0.376471"
         flood-color="rgb(0,0,0)"
         result="flood"
         id="feFlood4556" />
      <feComposite
         in="flood"
         in2="SourceGraphic"
         operator="in"
         result="composite1"
         id="feComposite4558" />
      <feGaussianBlur
         in="composite1"
         stdDeviation="0.5"
         result="blur"
         id="feGaussianBlur4560" />
      <feOffset
         dx="0"
         dy="0.5"
         result="offset"
         id="feOffset4562" />
      <feComposite
         in="SourceGraphic"
         in2="offset"
         operator="over"
         result="composite2"
         id="feComposite4564" />
    </filter>
    <filter
       style="color-interpolation-filters:sRGB;"
       inkscape:label="Drop Shadow"
       id="filter4566">
      <feFlood
         flood-opacity="0.376471"
         flood-color="rgb(0,0,0)"
         result="flood"
         id="feFlood4568" />
      <feComposite
         in="flood"
         in2="SourceGraphic"
         operator="in"
         result="composite1"
         id="feComposite4570" />
      <feGaussianBlur
         in="composite1"
         stdDeviation="0.5"
         result="blur"
         id="feGaussianBlur4572" />
      <feOffset
         dx="0"
         dy="0.5"
         result="offset"
         id="feOffset4574" />
      <feComposite
         in="SourceGraphic"
         in2="offset"
         operator="over"
         result="composite2"
         id="feComposite4576" />
    </filter>
    <filter
       id="filter5700"
       inkscape:label="Drop Shadow"
       style="color-interpolation-filters:sRGB;">
      <feFlood
         id="feFlood5702"
         result="flood"
         flood-color="rgb(38,50,56)"
         flood-opacity="0.376471" />
      <feComposite
         id="feComposite5704"
         result="composite1"
         operator="in"
         in2="SourceGraphic"
         in="flood" />
      <feGaussianBlur
         id="feGaussianBlur5706"
         result="blur"
         stdDeviation="0.5"
         in="composite1" />
      <feOffset
         id="feOffset5708"
         result="offset"
         dy="0.5"
         dx="0" />
      <feComposite
         id="feComposite5710"
         result="composite2"
         operator="over"
         in2="offset"
         in="SourceGraphic" />
    </filter>
    <filter
       style="color-interpolation-filters:sRGB;"
       inkscape:label="Drop Shadow"
       id="filter4302">
      <feFlood
         flood-opacity="1"
         flood-color="rgb(62,39,35)"
         result="flood"
         id="feFlood4304" />
      <feComposite
         in="flood"
         in2="SourceGraphic"
         operator="in"
         result="composite1"
         id="feComposite4306" />
      <feGaussianBlur
         in="composite1"
         stdDeviation="0.5"
         result="blur"
         id="feGaussianBlur4308" />
      <feOffset
         dx="0"
         dy="0.5"
         result="offset"
         id="feOffset4310" />
      <feComposite
         in="SourceGraphic"
         in2="offset"
         operator="over"
         result="composite2"
         id="feComposite4312" />
    </filter>
    <filter
       style="color-interpolation-filters:sRGB;"
       inkscape:label="Drop Shadow"
       id="filter4314">
      <feFlood
         flood-opacity="1"
         flood-color="rgb(62,39,35)"
         result="flood"
         id="feFlood4316" />
      <feComposite
         in="flood"
         in2="SourceGraphic"
         operator="in"
         result="composite1"
         id="feComposite4318" />
      <feGaussianBlur
         in="composite1"
         stdDeviation="0.5"
         result="blur"
         id="feGaussianBlur4320" />
      <feOffset
         dx="0"
         dy="0.5"
         result="offset"
         id="feOffset4322" />
      <feComposite
         in="SourceGraphic"
         in2="offset"
         operator="over"
         result="composite2"
         id="feComposite4324" />
    </filter>
    <filter
       style="color-interpolation-filters:sRGB;"
       inkscape:label="Drop Shadow"
       id="filter4326">
      <feFlood
         flood-opacity="1"
         flood-color="rgb(62,39,35)"
         result="flood"
         id="feFlood4328" />
      <feComposite
         in="flood"
         in2="SourceGraphic"
         operator="in"
         result="composite1"
         id="feComposite4330" />
      <feGaussianBlur
         in="composite1"
         stdDeviation="0.5"
         result="blur"
         id="feGaussianBlur4332" />
      <feOffset
         dx="0"
         dy="0.5"
         result="offset"
         id="feOffset4334" />
      <feComposite
         in="SourceGraphic"
         in2="offset"
         operator="over"
         result="composite2"
         id="feComposite4336" />
    </filter>
    <filter
       style="color-interpolation-filters:sRGB;"
       inkscape:label="Drop Shadow"
       id="filter4338">
      <feFlood
         flood-opacity="1"
         flood-color="rgb(62,39,35)"
         result="flood"
         id="feFlood4340" />
      <feComposite
         in="flood"
         in2="SourceGraphic"
         operator="in"
         result="composite1"
         id="feComposite4342" />
      <feGaussianBlur
         in="composite1"
         stdDeviation="0.5"
         result="blur"
         id="feGaussianBlur4344" />
      <feOffset
         dx="0"
         dy="0.5"
         result="offset"
         id="feOffset4346" />
      <feComposite
         in="SourceGraphic"
         in2="offset"
         operator="over"
         result="composite2"
         id="feComposite4348" />
    </filter>
    <linearGradient
       inkscape:collect="always"
       xlink:href="#linearGradient11630"
       id="linearGradient11636"
       x1="31"
       y1="164"
       x2="59"
       y2="192"
       gradientUnits="userSpaceOnUse" />
    <linearGradient
       inkscape:collect="always"
       xlink:href="#linearGradient11630"
       id="linearGradient11638"
       x1="8"
       y1="164"
       x2="36"
       y2="192"
       gradientUnits="userSpaceOnUse" />
    <filter
       style="color-interpolation-filters:sRGB;"
       inkscape:label="Drop Shadow"
       id="filter11701">
      <feFlood
         flood-opacity="1"
         flood-color="rgb(62,39,35)"
         result="flood"
         id="feFlood11703" />
      <feComposite
         in="flood"
         in2="SourceGraphic"
         operator="in"
         result="composite1"
         id="feComposite11705" />
      <feGaussianBlur
         in="composite1"
         stdDeviation="0.5"
         result="blur"
         id="feGaussianBlur11707" />
      <feOffset
         dx="0"
         dy="0.5"
         result="offset"
         id="feOffset11709" />
      <feComposite
         in="SourceGraphic"
         in2="offset"
         operator="over"
         result="composite2"
         id="feComposite11711" />
    </filter>
    <filter
       style="color-interpolation-filters:sRGB;"
       inkscape:label="Drop Shadow"
       id="filter11912">
      <feFlood
         flood-opacity="1"
         flood-color="rgb(62,39,35)"
         result="flood"
         id="feFlood11914" />
      <feComposite
         in="flood"
         in2="SourceGraphic"
         operator="in"
         result="composite1"
         id="feComposite11916" />
      <feGaussianBlur
         in="composite1"
         stdDeviation="0.5"
         result="blur"
         id="feGaussianBlur11918" />
      <feOffset
         dx="0"
         dy="0.5"
         result="offset"
         id="feOffset11920" />
      <feComposite
         in="offset"
         in2="SourceGraphic"
         operator="out"
         result="composite2"
         id="feComposite11922" />
    </filter>
    <filter
       style="color-interpolation-filters:sRGB;"
       inkscape:label="Drop Shadow"
       id="filter11924">
      <feFlood
         flood-opacity="1"
         flood-color="rgb(62,39,35)"
         result="flood"
         id="feFlood11926" />
      <feComposite
         in="flood"
         in2="SourceGraphic"
         operator="in"
         result="composite1"
         id="feComposite11928" />
      <feGaussianBlur
         in="composite1"
         stdDeviation="0.5"
         result="blur"
         id="feGaussianBlur11930" />
      <feOffset
         dx="0"
         dy="0.5"
         result="offset"
         id="feOffset11932" />
      <feComposite
         in="offset"
         in2="SourceGraphic"
         operator="out"
         result="composite2"
         id="feComposite11934" />
    </filter>
    <filter
       style="color-interpolation-filters:sRGB;"
       inkscape:label="Drop Shadow"
       id="filter12014">
      <feFlood
         flood-opacity="1"
         flood-color="rgb(62,39,35)"
         result="flood"
         id="feFlood12016" />
      <feComposite
         in="flood"
         in2="SourceGraphic"
         operator="in"
         result="composite1"
         id="feComposite12018" />
      <feGaussianBlur
         in="composite1"
         stdDeviation="0.5"
         result="blur"
         id="feGaussianBlur12020" />
      <feOffset
         dx="0"
         dy="0.5"
         result="offset"
         id="feOffset12022" />
      <feComposite
         in="offset"
         in2="SourceGraphic"
         operator="out"
         result="composite2"
         id="feComposite12024" />
    </filter>
    <filter
       style="color-interpolation-filters:sRGB;"
       inkscape:label="Drop Shadow"
       id="filter12026">
      <feFlood
         flood-opacity="1"
         flood-color="rgb(62,39,35)"
         result="flood"
         id="feFlood12028" />
      <feComposite
         in="flood"
         in2="SourceGraphic"
         operator="in"
         result="composite1"
         id="feComposite12030" />
      <feGaussianBlur
         in="composite1"
         stdDeviation="0.5"
         result="blur"
         id="feGaussianBlur12032" />
      <feOffset
         dx="0"
         dy="0.5"
         result="offset"
         id="feOffset12034" />
      <feComposite
         in="offset"
         in2="SourceGraphic"
         operator="out"
         result="composite2"
         id="feComposite12036" />
    </filter>
    <filter
       style="color-interpolation-filters:sRGB;"
       inkscape:label="Drop Shadow"
       id="filter12066">
      <feFlood
         flood-opacity="1"
         flood-color="rgb(62,39,35)"
         result="flood"
         id="feFlood12068" />
      <feComposite
         in="flood"
         in2="SourceGraphic"
         operator="out"
         result="composite1"
         id="feComposite12070" />
      <feGaussianBlur
         in="composite1"
         stdDeviation="0.5"
         result="blur"
         id="feGaussianBlur12072" />
      <feOffset
         dx="0"
         dy="0.5"
         result="offset"
         id="feOffset12074" />
      <feComposite
         in="offset"
         in2="SourceGraphic"
         operator="in"
         result="composite2"
         id="feComposite12076" />
    </filter>
    <filter
       style="color-interpolation-filters:sRGB;"
       inkscape:label="Drop Shadow"
       id="filter12078">
      <feFlood
         flood-opacity="1"
         flood-color="rgb(62,39,35)"
         result="flood"
         id="feFlood12080" />
      <feComposite
         in="flood"
         in2="SourceGraphic"
         operator="out"
         result="composite1"
         id="feComposite12082" />
      <feGaussianBlur
         in="composite1"
         stdDeviation="0.5"
         result="blur"
         id="feGaussianBlur12084" />
      <feOffset
         dx="0"
         dy="0.5"
         result="offset"
         id="feOffset12086" />
      <feComposite
         in="offset"
         in2="SourceGraphic"
         operator="in"
         result="composite2"
         id="feComposite12088" />
    </filter>
  </defs>
  <metadata
     id="metadata7">
    <rdf:RDF>
      <cc:Work
         rdf:about="">
        <dc:format>image/svg+xml</dc:format>
        <dc:type
           rdf:resource="http://purl.org/dc/dcmitype/StillImage" />
        <dc:title />
      </cc:Work>
    </rdf:RDF>
  </metadata>
  <g
     style="display:inline"
     inkscape:label="remote"
     id="layer7"
     inkscape:groupmode="layer"
     transform="translate(0,-144)">
    <g
       inkscape:groupmode="layer"
       id="layer11"
       inkscape:label="drop shadow"
       style="display:inline">
      <path
         style="display:inline;opacity:1;fill:#000000;fill-opacity:1;fill-rule:evenodd;stroke:none;stroke-width:0.1;stroke-linejoin:round;stroke-miterlimit:4;stroke-dasharray:none;stroke-opacity:1;filter:url(#filter11701)"
         d="m 24,1 c -1.108,0 -2,0.892 -2,2 l 0,5 -4,0 c -1.108,0 -2,0.892 -2,2 -4.389959,0.543 -8.1859759,1.077425 -12,3 0,0 -2,1 -2,3 l 0,21 c 0,1.662 1.338,3 3,3 l 38,0 c 1.662,0 3,-1.338 3,-3 L 46,16 C 46,14 44,13 44,13 40.187896,11.073244 36.392325,10.541502 32,10 32,8.892 31.108,8 30,8 L 26,8 26,3 C 26,1.892 25.108,1 24,1 Z"
         transform="translate(0,144)"
         id="path11694"
         inkscape:connector-curvature="0" />
    </g>
    <g
       inkscape:groupmode="layer"
       id="layer13"
       inkscape:label="base"
       style="display:inline">
      <g
         inkscape:groupmode="layer"
         id="layer14"
         inkscape:label="base color"
         style="display:inline">
        <path
           sodipodi:nodetypes="ccssssssccc"
           inkscape:connector-curvature="0"
           id="rect4584"
           transform="translate(0,144)"
           d="m 16,10 c -4.389959,0.543 -8.1859759,1.077425 -12,3 0,0 -2,1 -2,3 l 0,21 c 0,1.662 1.338,3 3,3 l 38,0 c 1.662,0 3,-1.338 3,-3 l 0,-21 c 0,-2 -2,-3 -2,-3 -3.812104,-1.926756 -7.607675,-2.458498 -12,-3 -2,0 -14,0 -16,0 z"
           style="opacity:1;fill:#ef6c00;fill-opacity:1;fill-rule:evenodd;stroke:none;stroke-width:0.1;stroke-linejoin:round;stroke-miterlimit:4;stroke-dasharray:none;stroke-opacity:1" />
      </g>
      <g
         style="display:inline;opacity:0.2"
         inkscape:label="base edges"
         id="g4323"
         inkscape:groupmode="layer">
        <path
           inkscape:connector-curvature="0"
           id="path4325"
           transform="translate(0,144)"
           d="m 16,10 c -4.389959,0.543 -8.1859759,1.077425 -12,3 0,0 -2,1 -2,3 l 0,1 c 0,-2 2,-3 2,-3 3.8140241,-1.92258 7.610041,-2.457 12,-3 l 16,0 c 4.392325,0.5415 8.187896,1.07324 12,3 0,0 2,1 2,3 l 0,-1 c 0,-2 -2,-3 -2,-3 -3.812104,-1.926756 -7.607675,-2.458498 -12,-3 l -16,0 z"
           style="opacity:1;fill:#ffffff;fill-opacity:1;fill-rule:evenodd;stroke:none;stroke-width:0.1;stroke-linejoin:round;stroke-miterlimit:4;stroke-dasharray:none;stroke-opacity:1" />
        <path
           transform="translate(0,144)"
           style="display:inline;opacity:1;fill:#bf360c;fill-opacity:1;fill-rule:evenodd;stroke:none;stroke-width:0.1;stroke-linejoin:round;stroke-miterlimit:4;stroke-dasharray:none;stroke-opacity:1"
           d="m 2,36 0,1 c 0,1.662 1.338,3 3,3 l 38,0 c 1.662,0 3,-1.338 3,-3 l 0,-1 c 0,1.662 -1.338,3 -3,3 L 5,39 C 3.338,39 2,37.662 2,36 Z"
           id="rect4601"
           inkscape:connector-curvature="0" />
      </g>
    </g>
    <g
       inkscape:groupmode="layer"
       id="g6776"
       inkscape:label="big antenna"
       style="display:inline">
      <g
         style="display:inline;opacity:1"
         inkscape:label="big antenna color"
         id="g6778"
         inkscape:groupmode="layer">
        <circle
           r="0"
           cy="184"
           cx="8.0000019"
           id="circle6780"
           style="opacity:1;fill:none;fill-opacity:1;stroke:#000000;stroke-width:0.24000001;stroke-linejoin:round;stroke-miterlimit:4;stroke-dasharray:none;stroke-opacity:1" />
        <path
           style="display:inline;opacity:1;fill:#263238;fill-opacity:1;fill-rule:evenodd;stroke:none;stroke-width:2;stroke-linejoin:round;stroke-miterlimit:4;stroke-dasharray:none;stroke-opacity:1"
           d="m 24,1 c -1.108,0 -2,0.892 -2,2 l 0,5 -4,0 c -1.108,0 -2,0.892 -2,2 l 0,1 16,0 0,-1 C 32,8.892 31.108,8 30,8 L 26,8 26,3 C 26,1.892 25.108,1 24,1 Z"
           id="rect8431"
           inkscape:connector-curvature="0"
           transform="translate(0,144)" />
      </g>
      <g
         inkscape:groupmode="layer"
         id="g6795"
         inkscape:label="big antenna edges"
         style="display:inline;opacity:0.2">
        <circle
           style="opacity:1;fill:none;fill-opacity:1;stroke:#000000;stroke-width:0.24000001;stroke-linejoin:round;stroke-miterlimit:4;stroke-dasharray:none;stroke-opacity:1"
           id="circle6797"
           cx="8.0000019"
           cy="184"
           r="0" />
        <path
           style="display:inline;opacity:1;fill:#ffffff;fill-opacity:1;fill-rule:evenodd;stroke:none;stroke-width:2;stroke-linejoin:round;stroke-miterlimit:4;stroke-dasharray:none;stroke-opacity:1"
           d="m 24,1 c -1.108,0 -2,0.892 -2,2 l 0,1 c 0,-1.108 0.892,-2 2,-2 1.108,0 2,0.892 2,2 L 26,3 C 26,1.892 25.108,1 24,1 Z m -6,7 c -1.108,0 -2,0.892 -2,2 l 0,1 c 0,-1.108 0.892,-2 2,-2 l 4,0 0,-1 -4,0 z m 8,0 0,1 4,0 c 1.108,0 2,0.892 2,2 l 0,-1 C 32,8.892 31.108,8 30,8 l -4,0 z"
           transform="translate(0,144)"
           id="path8442"
           inkscape:connector-curvature="0" />
      </g>
    </g>
    <g
       style="display:inline"
       inkscape:label="big knobs"
       id="layer8"
       inkscape:groupmode="layer">
      <g
         style="display:inline"
         inkscape:label="big knobs color"
         id="layer9"
         inkscape:groupmode="layer">
        <rect
           style="opacity:1;fill:#909090;fill-opacity:1;fill-rule:evenodd;stroke:none;stroke-width:2;stroke-linejoin:round;stroke-miterlimit:4;stroke-dasharray:none;stroke-opacity:1"
           id="rect11678"
           width="13"
           height="5"
           x="29"
           y="167"
           ry="0" />
        <rect
           style="opacity:1;fill:#909090;fill-opacity:1;fill-rule:evenodd;stroke:none;stroke-width:2;stroke-linejoin:round;stroke-miterlimit:4;stroke-dasharray:none;stroke-opacity:1"
           id="rect11680"
           width="13"
           height="5"
           x="6"
           y="167" />
        <path
           style="color:#000000;font-style:normal;font-variant:normal;font-weight:normal;font-stretch:normal;font-size:medium;line-height:normal;font-family:sans-serif;text-indent:0;text-align:start;text-decoration:none;text-decoration-line:none;text-decoration-style:solid;text-decoration-color:#000000;letter-spacing:normal;word-spacing:normal;text-transform:none;direction:ltr;block-progression:tb;writing-mode:lr-tb;baseline-shift:baseline;text-anchor:start;white-space:normal;clip-rule:nonzero;display:inline;overflow:visible;visibility:visible;opacity:1;isolation:auto;mix-blend-mode:normal;color-interpolation:sRGB;color-interpolation-filters:linearRGB;solid-color:#000000;solid-opacity:1;fill:#bebebe;fill-opacity:1;fill-rule:evenodd;stroke:none;stroke-width:2;stroke-linecap:butt;stroke-linejoin:round;stroke-miterlimit:4;stroke-dasharray:none;stroke-dashoffset:0;stroke-opacity:1;color-rendering:auto;image-rendering:auto;shape-rendering:auto;text-rendering:auto;enable-background:accumulate"
           d="m 12.5,162 c -4.130291,0 -7.5,3.36971 -7.5,7.5 0,4.13029 3.369709,7.5 7.5,7.5 4.130291,0 7.5,-3.36971 7.5,-7.5 0,-4.13029 -3.369709,-7.5 -7.5,-7.5 z m 0,2 c 3.049411,0 5.5,2.45059 5.5,5.5 0,3.04941 -2.450589,5.5 -5.5,5.5 C 9.4505892,175 7,172.54941 7,169.5 7,166.45059 9.4505892,164 12.5,164 Z"
           id="path4359"
           inkscape:connector-curvature="0" />
        <circle
           style="display:inline;opacity:1;fill:#263238;fill-opacity:1;fill-rule:evenodd;stroke:none;stroke-width:2;stroke-linejoin:round;stroke-miterlimit:4;stroke-dasharray:none;stroke-opacity:1"
           id="path4365"
           cx="12.5"
           cy="169.5"
           r="2.5" />
        <path
           style="color:#000000;font-style:normal;font-variant:normal;font-weight:normal;font-stretch:normal;font-size:medium;line-height:normal;font-family:sans-serif;text-indent:0;text-align:start;text-decoration:none;text-decoration-line:none;text-decoration-style:solid;text-decoration-color:#000000;letter-spacing:normal;word-spacing:normal;text-transform:none;direction:ltr;block-progression:tb;writing-mode:lr-tb;baseline-shift:baseline;text-anchor:start;white-space:normal;clip-rule:nonzero;display:inline;overflow:visible;visibility:visible;opacity:1;isolation:auto;mix-blend-mode:normal;color-interpolation:sRGB;color-interpolation-filters:linearRGB;solid-color:#000000;solid-opacity:1;fill:#bebebe;fill-opacity:1;fill-rule:evenodd;stroke:none;stroke-width:2;stroke-linecap:butt;stroke-linejoin:round;stroke-miterlimit:4;stroke-dasharray:none;stroke-dashoffset:0;stroke-opacity:1;color-rendering:auto;image-rendering:auto;shape-rendering:auto;text-rendering:auto;enable-background:accumulate"
           d="m 35.5,162 c -4.130291,0 -7.5,3.36971 -7.5,7.5 0,4.13029 3.369709,7.5 7.5,7.5 4.130291,0 7.5,-3.36971 7.5,-7.5 0,-4.13029 -3.369709,-7.5 -7.5,-7.5 z m 0,2 c 3.049411,0 5.5,2.45059 5.5,5.5 0,3.04941 -2.450589,5.5 -5.5,5.5 -3.049411,0 -5.5,-2.45059 -5.5,-5.5 0,-3.04941 2.450589,-5.5 5.5,-5.5 z"
           id="circle5089"
           inkscape:connector-curvature="0" />
        <circle
           r="2.5"
           cy="169.5"
           cx="35.5"
           id="circle5091"
           style="display:inline;opacity:1;fill:#263238;fill-opacity:1;fill-rule:evenodd;stroke:none;stroke-width:2;stroke-linejoin:round;stroke-miterlimit:4;stroke-dasharray:none;stroke-opacity:1" />
      </g>
      <g
         inkscape:groupmode="layer"
         id="layer5"
         inkscape:label="big knobs edges"
         style="display:none;opacity:1">
        <path
           style="display:inline;opacity:1;fill:#ffffff;fill-opacity:1;fill-rule:evenodd;stroke:none;stroke-width:2;stroke-linejoin:round;stroke-miterlimit:4;stroke-dasharray:none;stroke-opacity:1"
           d="M 12.5,23 A 2.5,2.5 0 0 0 10,25.5 2.5,2.5 0 0 0 10.052734,25.996094 2.5,2.5 0 0 1 12.5,24 2.5,2.5 0 0 1 14.947266,26.003906 2.5,2.5 0 0 0 15,25.5 2.5,2.5 0 0 0 12.5,23 Z"
           transform="translate(0,144)"
           id="circle8448"
           inkscape:connector-curvature="0" />
        <path
           style="display:inline;opacity:1;fill:#ffffff;fill-opacity:1;fill-rule:evenodd;stroke:none;stroke-width:2;stroke-linejoin:round;stroke-miterlimit:4;stroke-dasharray:none;stroke-opacity:1"
           d="M 35.5,23 A 2.5,2.5 0 0 0 33,25.5 2.5,2.5 0 0 0 33.052734,25.996094 2.5,2.5 0 0 1 35.5,24 2.5,2.5 0 0 1 37.947266,26.003906 2.5,2.5 0 0 0 38,25.5 2.5,2.5 0 0 0 35.5,23 Z"
           transform="translate(0,144)"
           id="circle8450"
           inkscape:connector-curvature="0" />
        <path
           style="display:inline;opacity:1;fill:#000000;fill-opacity:1;fill-rule:evenodd;stroke:none;stroke-width:2;stroke-linejoin:round;stroke-miterlimit:4;stroke-dasharray:none;stroke-opacity:1"
           d="M 10.052734,24.996094 A 2.5,2.5 0 0 0 10,25.5 2.5,2.5 0 0 0 12.5,28 2.5,2.5 0 0 0 15,25.5 2.5,2.5 0 0 0 14.947266,25.003906 2.5,2.5 0 0 1 12.5,27 2.5,2.5 0 0 1 10.052734,24.996094 Z"
           transform="translate(0,144)"
           id="circle8461"
           inkscape:connector-curvature="0" />
        <path
           style="display:inline;opacity:1;fill:#000000;fill-opacity:1;fill-rule:evenodd;stroke:none;stroke-width:2;stroke-linejoin:round;stroke-miterlimit:4;stroke-dasharray:none;stroke-opacity:1"
           d="M 33.052734,24.996094 A 2.5,2.5 0 0 0 33,25.5 2.5,2.5 0 0 0 35.5,28 2.5,2.5 0 0 0 38,25.5 2.5,2.5 0 0 0 37.947266,25.003906 2.5,2.5 0 0 1 35.5,27 2.5,2.5 0 0 1 33.052734,24.996094 Z"
           transform="translate(0,144)"
           id="circle8463"
           inkscape:connector-curvature="0" />
      </g>
      <g
         style="display:none;opacity:0.2"
         inkscape:label="circles edges bottom"
         id="g11640"
         inkscape:groupmode="layer">
        <path
           inkscape:connector-curvature="0"
           id="path11650"
           transform="translate(0,144)"
           d="M 5.0253906,25 C 5.0143406,25.16587 5,25.331419 5,25.5 5,29.63029 8.369709,33 12.5,33 16.630291,33 20,29.63029 20,25.5 20,25.331419 19.985659,25.16587 19.974609,25 19.714931,28.897986 16.46171,32 12.5,32 8.5382903,32 5.2850689,28.897986 5.0253906,25 Z"
           style="color:#000000;font-style:normal;font-variant:normal;font-weight:normal;font-stretch:normal;font-size:medium;line-height:normal;font-family:sans-serif;text-indent:0;text-align:start;text-decoration:none;text-decoration-line:none;text-decoration-style:solid;text-decoration-color:#000000;letter-spacing:normal;word-spacing:normal;text-transform:none;direction:ltr;block-progression:tb;writing-mode:lr-tb;baseline-shift:baseline;text-anchor:start;white-space:normal;clip-rule:nonzero;display:inline;overflow:visible;visibility:visible;opacity:1;isolation:auto;mix-blend-mode:normal;color-interpolation:sRGB;color-interpolation-filters:linearRGB;solid-color:#000000;solid-opacity:1;fill:#000000;fill-opacity:1;fill-rule:evenodd;stroke:none;stroke-width:2;stroke-linecap:butt;stroke-linejoin:round;stroke-miterlimit:4;stroke-dasharray:none;stroke-dashoffset:0;stroke-opacity:1;color-rendering:auto;image-rendering:auto;shape-rendering:auto;text-rendering:auto;enable-background:accumulate"
           sodipodi:nodetypes="cssscsc" />
        <path
           inkscape:connector-curvature="0"
           id="path11652"
           transform="translate(0,144)"
           d="M 28.025391,25 C 28.014341,25.16587 28,25.331419 28,25.5 28,29.63029 31.369709,33 35.5,33 39.630291,33 43,29.63029 43,25.5 43,25.331419 42.985659,25.16587 42.974609,25 42.714931,28.897986 39.46171,32 35.5,32 31.53829,32 28.285069,28.897986 28.025391,25 Z"
           style="color:#000000;font-style:normal;font-variant:normal;font-weight:normal;font-stretch:normal;font-size:medium;line-height:normal;font-family:sans-serif;text-indent:0;text-align:start;text-decoration:none;text-decoration-line:none;text-decoration-style:solid;text-decoration-color:#000000;letter-spacing:normal;word-spacing:normal;text-transform:none;direction:ltr;block-progression:tb;writing-mode:lr-tb;baseline-shift:baseline;text-anchor:start;white-space:normal;clip-rule:nonzero;display:inline;overflow:visible;visibility:visible;opacity:1;isolation:auto;mix-blend-mode:normal;color-interpolation:sRGB;color-interpolation-filters:linearRGB;solid-color:#000000;solid-opacity:1;fill:#000000;fill-opacity:1;fill-rule:evenodd;stroke:none;stroke-width:2;stroke-linecap:butt;stroke-linejoin:round;stroke-miterlimit:4;stroke-dasharray:none;stroke-dashoffset:0;stroke-opacity:1;color-rendering:auto;image-rendering:auto;shape-rendering:auto;text-rendering:auto;enable-background:accumulate"
           sodipodi:nodetypes="cssscsc" />
      </g>
      <g
         inkscape:groupmode="layer"
         id="g11668"
         inkscape:label="circles edges top"
         style="display:inline;opacity:1">
        <path
           id="path11674"
           transform="translate(0,144)"
           d="M 12.5,18 A 7.5,7.5 0 0 0 5,25.5 7.5,7.5 0 0 0 5.0214844,26.052734 7.5,7.5 0 0 1 12.5,19 7.5,7.5 0 0 1 19.978516,25.947266 7.5,7.5 0 0 0 20,25.5 7.5,7.5 0 0 0 12.5,18 Z"
           style="opacity:1;fill:#ffffff;fill-opacity:1;fill-rule:evenodd;stroke:none;stroke-width:2;stroke-linejoin:round;stroke-miterlimit:4;stroke-dasharray:none;stroke-opacity:1"
           inkscape:connector-curvature="0" />
        <path
           id="path11676"
           transform="translate(0,144)"
           d="M 35.5,18 A 7.5,7.5 0 0 0 28,25.5 7.5,7.5 0 0 0 28.021484,26.052734 7.5,7.5 0 0 1 35.5,19 7.5,7.5 0 0 1 42.978516,25.947266 7.5,7.5 0 0 0 43,25.5 7.5,7.5 0 0 0 35.5,18 Z"
           style="opacity:1;fill:#ffffff;fill-opacity:1;fill-rule:evenodd;stroke:none;stroke-width:2;stroke-linejoin:round;stroke-miterlimit:4;stroke-dasharray:none;stroke-opacity:1"
           inkscape:connector-curvature="0" />
      </g>
      <g
         inkscape:groupmode="layer"
         id="layer12"
         inkscape:label="circles drop shadow"
         style="display:inline;opacity:0.8">
        <circle
           r="2.5"
           cy="169.5"
           cx="12.5"
           id="circle12008"
           style="display:inline;opacity:1;fill:#263238;fill-opacity:1;fill-rule:evenodd;stroke:none;stroke-width:2;stroke-linejoin:round;stroke-miterlimit:4;stroke-dasharray:none;stroke-opacity:1;filter:url(#filter12014)" />
        <circle
           style="display:inline;opacity:1;fill:#263238;fill-opacity:1;fill-rule:evenodd;stroke:none;stroke-width:2;stroke-linejoin:round;stroke-miterlimit:4;stroke-dasharray:none;stroke-opacity:1;filter:url(#filter12026)"
           id="circle12010"
           cx="35.5"
           cy="169.5"
           r="2.5" />
        <circle
           style="opacity:1;fill:#000000;fill-opacity:1;fill-rule:evenodd;stroke:none;stroke-width:2;stroke-linejoin:round;stroke-miterlimit:4;stroke-dasharray:none;stroke-opacity:1;filter:url(#filter12078)"
           id="path12038"
           cx="12.5"
           cy="169.5"
           r="5.5" />
        <circle
           style="opacity:1;fill:#000000;fill-opacity:1;fill-rule:evenodd;stroke:none;stroke-width:2;stroke-linejoin:round;stroke-miterlimit:4;stroke-dasharray:none;stroke-opacity:1;filter:url(#filter12066)"
           id="path12040"
           cx="35.5"
           cy="169.5"
           r="5.5" />
      </g>
    </g>
    <g
       inkscape:groupmode="layer"
       id="g6810"
       inkscape:label="long shadow"
       style="display:inline;opacity:0.32000002">
      <circle
         style="opacity:1;fill:none;fill-opacity:1;stroke:#000000;stroke-width:0.24000001;stroke-linejoin:round;stroke-miterlimit:4;stroke-dasharray:none;stroke-opacity:1"
         id="circle6812"
         cx="8.0000019"
         cy="184"
         r="0" />
      <path
         style="opacity:1;fill:url(#linearGradient11638);fill-opacity:1;fill-rule:evenodd;stroke:none;stroke-width:2;stroke-linejoin:round;stroke-miterlimit:4;stroke-dasharray:none;stroke-opacity:1"
         d="M 18.273438,164.7168 A 7.5,7.5 0 0 1 20,169.5 a 7.5,7.5 0 0 1 -0.740234,3.22656 c -1.583941,-1.58597 -3.170716,-3.16914 -4.753907,-4.75586 -0.46163,-0.46539 -1.112025,-0.73508 -1.767578,-0.73242 -2.9233841,0.009 -3.1302319,3.87337 -0.919922,5.0918 1.306775,1.30974 2.616517,2.61656 3.923829,3.92578 A 7.5,7.5 0 0 1 12.5,177 7.5,7.5 0 0 1 7.7773438,175.32031 c 1.9180287,2.15427 4.1387252,4.05579 6.1054682,6.16992 0.837926,0.83521 1.672336,1.67407 2.509766,2.50977 l 21.205078,0 C 31.163381,177.56508 24.728134,171.13105 18.273438,164.7168 Z"
         id="path11628"
         inkscape:connector-curvature="0" />
      <path
         style="opacity:1;fill:url(#linearGradient11636);fill-opacity:1;fill-rule:evenodd;stroke:none;stroke-width:2;stroke-linejoin:round;stroke-miterlimit:4;stroke-dasharray:none;stroke-opacity:1"
         d="M 41.273438,164.7168 A 7.5,7.5 0 0 1 43,169.5 a 7.5,7.5 0 0 1 -0.740234,3.22656 c -1.583941,-1.58597 -3.170716,-3.16914 -4.753907,-4.75586 -0.46163,-0.46539 -1.112025,-0.73508 -1.767578,-0.73242 -2.923385,0.009 -3.130233,3.87337 -0.919922,5.0918 1.306775,1.30974 2.616518,2.61656 3.923829,3.92578 A 7.5,7.5 0 0 1 35.5,177 7.5,7.5 0 0 1 30.777344,175.32031 c 1.918029,2.15427 4.138725,4.05579 6.105468,6.16992 0.837926,0.83521 1.672336,1.67407 2.509766,2.50977 L 43,184 c 1.662,0 3,-1.338 3,-3 l 0,-11.56641 c -1.577143,-1.57062 -3.147746,-3.14787 -4.726562,-4.71679 z"
         id="path9543"
         inkscape:connector-curvature="0" />
    </g>
  </g>
  <g
     inkscape:groupmode="layer"
     id="layer6"
     inkscape:label="helpers"
     style="display:none"
     sodipodi:insensitive="true">
    <g
       style="display:inline;opacity:0.3496241"
       transform="translate(0,-1004.3622)"
       id="layer1"
       inkscape:groupmode="layer"
       inkscape:label="Horizontal rectangle"
       sodipodi:insensitive="true">
      <rect
         ry="2.8750174"
         y="1012.4872"
         x="2.125001"
         height="31.75"
         width="43.75"
         id="rect3034"
         style="fill:none;stroke:#455a64;stroke-width:0.24999899;stroke-linejoin:round;stroke-miterlimit:4;stroke-dasharray:none;stroke-opacity:1" />
    </g>
    <g
       style="display:inline;opacity:0.32330825"
       inkscape:label="Square"
       id="layer4"
       inkscape:groupmode="layer"
       transform="translate(0,-144)"
       sodipodi:insensitive="true">
      <rect
         ry="2.875"
         y="149"
         x="5"
         height="38"
         width="38"
         id="rect3811"
         style="fill:none;stroke:#455a64;stroke-width:0.25001359;stroke-linejoin:round;stroke-miterlimit:4;stroke-dasharray:none;stroke-opacity:1" />
    </g>
    <g
       style="display:none;opacity:0.36842107"
       inkscape:label="circle"
       id="layer3"
       inkscape:groupmode="layer"
       transform="translate(0,-144)"
       sodipodi:insensitive="true">
      <path
         id="path3040"
         style="fill:none;stroke:#455a64;stroke-width:0.25373662;stroke-linejoin:round;stroke-miterlimit:4;stroke-dasharray:none;stroke-opacity:1"
         sodipodi:type="arc"
         sodipodi:cx="24"
         sodipodi:cy="168"
         sodipodi:rx="22"
         sodipodi:ry="22"
         sodipodi:start="0"
         sodipodi:end="6.2801458"
         sodipodi:open="true"
         d="M 46,168 A 22,22 0 0 1 24.016717,189.99999 22,22 0 0 1 2.0000254,168.03343 22,22 0 0 1 23.949848,146.00006 a 22,22 0 0 1 22.05005,21.93307" />
    </g>
    <g
       style="display:none;opacity:0.3496241"
       inkscape:label="Vertical rectangle"
       id="layer2"
       inkscape:groupmode="layer"
       transform="translate(0,-144)"
       sodipodi:insensitive="true">
      <rect
         ry="2.874939"
         y="146"
         x="8"
         height="44"
         width="32"
         id="rect3037"
         style="fill:none;stroke:#455a64;stroke-width:0.25011528;stroke-linejoin:round;stroke-miterlimit:4;stroke-dasharray:none;stroke-opacity:1" />
    </g>
  </g>
</svg>
